{
    "APP_NAME": "Laravel",
    "APP_ENV": "uat",
    "APP_KEY": "base64:FIXjMkE/dXJigAe5WCeygQcZA9MWQI69eQlrbfYo/9o=",
    "APP_DEBUG": true,
    "APP_HTTPS": true,
    "APP_URL": "https://admin.ubizxpress.hdfcbank.com/",
    "BASE_URL": "https://admin.ubizxpress.hdfcbank.com/hdfc/",
    "LOG_CHANNEL": "stack",
    "DB_CONNECTION": "mysql",
    "DB_HOST_WRITE": "hbl-aws-aps1-pcidss-uat-bizexp-rds.cluster-cvb0fkzpgjk0.ap-south-1.rds.amazonaws.com",
    "DB_HOST_READ": "hbl-aws-aps1-pcidss-uat-bizexp-rds.cluster-ro-cvb0fkzpgjk0.ap-south-1.rds.amazonaws.com",
    "DB_PORT": 3306,
    "DB_DATABASE": "UatBizexpressAuroraMysql",
    "DB_USERNAME": "uatdbadmin",
    "DB_PASSWORD": "d$W!9Ll6u1eS0O",
    "BROADCAST_DRIVER": "log",
    "CACHE_DRIVER": "file",
    "SESSION_DRIVER": "file",
    "SESSION_LIFETIME": 120,
    "QUEUE_DRIVER": "sync",
    "REDIS_HOST": "hbl-aws-aps1",
    "REDIS_READ_HOST": "hbl-aws-aps1-pcidss-uat-bizexp-redis-001.fqes67.0001.aps1.cache.amazonaws.com",
    "REDIS_PASSWORD": null,
    "REDIS_PORT": 6379,
    "HDFC_BASE_URL": "https://backend.ubizxpress.hdfcbank.com/api/v1/",
    "HDFC_PHP_AUTH_USR": "BankOpen",
    "HDFC_PHP_PWD": "p\PLtqUD",
    "JWT_SECRET": "xeHhcjJXq5nrD4pNyyjhcnObHCrQtJgbWZFH364xmjg3K59NNi5qxZ1q4OtfmQO5",
    "HTTP_PROXY": "10.215.22.194:3128",
    "HTTPS_PROXY": "10.215.22.194:3128",
    "NO_PROXY": "*.amazonaws.com, localhost, sqs.ap-south-1.amazonaws.com"    
}
  